{
  "lastGenerateTime": "2019-06-25T10:05:40.174Z",
  "generateAll": false,
  "imageDir": "C:\\images",
  "thumbsDir": "C:\\images",
  "imageNetworkDrive": true,
  "thumbsNetworkDrive": false,
  "imageNetworkLetter": "I",
  "thumbsNetworkLetter": "T",
  "networkUserName": "user",
  "networkPassword": "password",
  "thumbsDirPrefix": "thumbs_",
  "thumbsSizes": [50, 75],
  "cron": ["10 * * * *", "12 * * * *"],
  "serviceScript": "c:\\scripts\\service.js",
  "serviceName": "Node Thumbnail Generator",
  "serviceDescription": "Generates thumbnails for rockerspro catalog.",
}